<svg xmlns="http://www.w3.org/2000/svg" width="38.808" height="48.609" viewBox="0 0 38.808 48.609">
  <g id="Group_1537" data-name="Group 1537" transform="translate(-1400 -3087.391)">
    <g id="Rectangle_578" data-name="Rectangle 578" transform="translate(1400 3116.654)" fill="none" stroke="#fff" stroke-width="2">
      <rect width="38.808" height="10.584" rx="2" stroke="none"/>
      <rect x="1" y="1" width="36.808" height="8.584" rx="1" fill="none"/>
    </g>
    <path id="Path_11815" data-name="Path 11815" d="M4213,738v8.644" transform="translate(-2809.825 2388.356)" fill="none" stroke="#fff" stroke-linecap="round" stroke-width="2"/>
    <path id="Path_11816" data-name="Path 11816" d="M4213,738v8.644" transform="translate(-2777.72 2388.356)" fill="none" stroke="#fff" stroke-linecap="round" stroke-width="2"/>
    <ellipse id="Ellipse_329" data-name="Ellipse 329" cx="6.197" cy="6.197" rx="6.197" ry="6.197" transform="translate(1412.697 3100.773) rotate(-80.783)" fill="none" stroke="#fff" stroke-linecap="round" stroke-linejoin="round" stroke-width="2"/>
    <g id="Ellipse_329-2" data-name="Ellipse 329" transform="translate(1415.582 3106.35) rotate(-45)" fill="#fff" stroke="#fff" stroke-width="2">
      <ellipse cx="2.521" cy="2.521" rx="2.521" ry="2.521" stroke="none"/>
      <ellipse cx="2.521" cy="2.521" rx="1.521" ry="1.521" fill="none"/>
    </g>
    <path id="Path_11818" data-name="Path 11818" d="M4299.986,686s-8.306,5.645,0,13.583" transform="translate(-2887.99 2415.484)" fill="none" stroke="#fff" stroke-width="2"/>
    <path id="Path_11820" data-name="Path 11820" d="M0,0S.029,5.645,0,13.583" transform="translate(1429.313 3101.891) rotate(20)" fill="none" stroke="#fff" stroke-width="2"/>
    <path id="Path_11819" data-name="Path 11819" d="M4274.271,705.25v9.085" transform="translate(-2855.124 2403.025)" fill="none" stroke="#fff" stroke-width="2"/>
  </g>
</svg>
